{ "lookinglass" : { "url"				: "http://192.168.254.10:8080"
				  , "accesskey"			: "validKey"
				  , "timeout"			: 10
				  , "concurrentrequests": 10
				  , "retryLimit"        : 3
				  , "rabbitBatchSize"   : { "candidate": 20
 					      , "manager": 50
 					      , "job": 50
 					      , "business": 50
 					      }		
 				  }
, "salesforce" : { "loginurl"		: "https://test.salesforce.com"
				 , "username"		: "integration@sthree.com.ci"
				 , "password"		: "pass"
				 , "securitytoken" 	: "token"
				 , "tmpdir"			: "/tmp/"
				 , "bulkapi" 		: { "pollfrequency"	: 1
									  , "timeout"		: 30000000000
									  }
				 , "collections"	: { "candidate": "test_candidates"
				 					  , "manager": "test_managers"
				 					  , "job": "test_jobs"
				 					  }

				 , "queues"			: { "candidate": "BullCiCandidate"
									  , "manager": "BullCiManager"
									  , "job": "BullCiJob"
									  }
				 }
, "logger" : 	{ "timestamp" 	: true
				, "showLevel" 	: true
				, "prettyPrint" : false
				, "level"		: "debug"
				}
, "aws" :       { "region":"eu-central-1"
		        , "credentials":{ "accessKeyId":"key"
						        , "secretAccessKey":"pass"
						        }
		        , "bucket":"sthreetestbucketherokudm"
		        }
, "mongo":		{ "cache": "mongodb://192.168.254.137:27017/testdb"
				, "rollup": "mongodb://192.168.254.137:27017/rollup"
				, "timeout": 20
				, "concurrentrequests": 10
				}
, "rollup":		{ "config": "rollup"
				, "collections": { "override": "test_override"
								 , "employer": "test_employer"
								 }
				}
, "rabbit": 	{ "read_rx_url": "amqps://jx5EZXuy:QMu6ejHo-mI2DCjL9xNIa3vsaS25x6Cz@swift-nildro-hain-1220.bigwig.lshift.net:20001/Sd-7yFqOYoqY"
				, "write_tx_url": "amqps://jx5EZXuy:QMu6ejHo-mI2DCjL9xNIa3vsaS25x6Cz@swift-nildro-hain-1220.bigwig.lshift.net:20000/Sd-7yFqOYoqY"
				, "ciphers": "DHE-RSA-AES256-SHA"
				, "transientConfig": "transientTest.json"
				}
, "time_limit_for_current_skills": 2
, "time_limit_for_current_employer": 4
}
